[
	{
		"name": "dotfiles",
		"rootPath": "/home/tdolsen/dotfiles",
		"paths": [],
		"group": "",
		"enabled": true
	},
	{
		"name": "@scrinz",
		"rootPath": "/home/tdolsen/Projects/scrinz/scrinz",
		"paths": [],
		"group": "scrinz",
		"enabled": true
	},
	{
		"name": "@scrinz/display-ui",
		"rootPath": "/home/tdolsen/Projects/scrinz/scrinz/applications/display-ui",
		"paths": [],
		"group": "scrinz",
		"enabled": true
	}
]
